module gitlab.com/binbincai/go-demo

go 1.18

require (
	github.com/stretchr/testify v1.7.1
	gitlab.com/bon-backend/go-cli v1.1.4
	gitlab.com/coinsea/go-pkg v1.4.8
)

require (
	github.com/astaxie/beego v1.12.3 // indirect
	github.com/davecgh/go-spew v1.1.1 // indirect
	github.com/gin-contrib/sse v0.1.0 // indirect
	github.com/gin-gonic/gin v1.8.1 // indirect
	github.com/go-playground/locales v0.14.0 // indirect
	github.com/go-playground/universal-translator v0.18.0 // indirect
	github.com/go-playground/validator/v10 v10.10.0 // indirect
	github.com/goccy/go-json v0.9.7 // indirect
	github.com/gogo/protobuf v1.3.2 // indirect
	github.com/golang/glog v0.0.0-20210429001901-424d2337a529 // indirect
	github.com/hashicorp/golang-lru v0.5.4 // indirect
	github.com/json-iterator/go v1.1.12 // indirect
	github.com/leodido/go-urn v1.2.1 // indirect
	github.com/lestrrat/go-file-rotatelogs v0.0.0-20180223000712-d3151e2a480f // indirect
	github.com/lestrrat/go-strftime v0.0.0-20180220042222-ba3bf9c1d042 // indirect
	github.com/mattn/go-isatty v0.0.14 // indirect
	github.com/modern-go/concurrent v0.0.0-20180306012644-bacd9c7ef1dd // indirect
	github.com/modern-go/reflect2 v1.0.2 // indirect
	github.com/pelletier/go-toml/v2 v2.0.1 // indirect
	github.com/pkg/errors v0.9.1 // indirect
	github.com/pmezard/go-difflib v1.0.0 // indirect
	github.com/rifflock/lfshook v0.0.0-20180920164130-b9218ef580f5 // indirect
	github.com/sirupsen/logrus v1.8.1 // indirect
	github.com/ugorji/go/codec v1.2.7 // indirect
	golang.org/x/crypto v0.0.0-20220112180741-5e0467b6c7ce // indirect
	golang.org/x/net v0.0.0-20211216030914-fe4d6282115f // indirect
	golang.org/x/sys v0.0.0-20220209214540-3681064d5158 // indirect
	golang.org/x/text v0.3.7 // indirect
	google.golang.org/protobuf v1.28.0 // indirect
	gopkg.in/go-playground/validator.v9 v9.31.0 // indirect
	gopkg.in/yaml.v2 v2.4.0 // indirect
	gopkg.in/yaml.v3 v3.0.0-20210107192922-496545a6307b // indirect
)
